{
    "reimbursementDetails": {
        "reimbursementType1": {
            "totalClaim": 100,
            "claims": [
                {
                    "documents": [],
                    "amountClaimed": 0,
                    "status": "Pending",
                    "month": "July"
                },
                {
                    "documents": [],
                    "amountClaimed": 100,
                    "status": "Approved",
                    "month": "June"
                }
            ]
        },
        "reimbursementType2": {
            "totalClaim": 5000,
            "claims": [
                {
                    "documents": [],
                    "amountClaimed": 1000,
                    "status": "Rejected",
                    "month": "August"
                },
                {
                    "documents": [],
                    "amountClaimed": 5000,
                    "status": "Approved",
                    "month": "April"
                }
            ]
        }
    }
}